make湾频道,#genre#

民視,rtmp://f13h.mine.nu/sat/tv051
華視,rtmp://f13h.mine.nu/sat/tv111
中視,rtmp://f13h.mine.nu/sat/tv091
台視,rtmp://f13h.mine.nu/sat/tv071

緯來育樂,rtmp://f13h.mine.nu/sat/tv701
东森超视,rtmp://f13h.mine.nu/sat/tv331
MoMo综合,rtmp://f13h.mine.nu/sat/tv761

东森电影台,mitv://generationnexxxt.com:19806/08435f286ac744a0942899c551209779
纬来电影台,mitv://generationnexxxt.com:19806/429796f5f00946fa933e400729286c7e

緯來日本,rtmp://f13h.mine.nu/sat/tv771
緯來體育,rtmp://f13h.mine.nu/sat/tv721

ELEVEN1台,rtmp://f13h.mine.nu/sat/tv731
ELEVEN2台,rtmp://f13h.mine.nu/sat/tv741

东森综合台,https://ktpremium.com:443/K3939/6757/870545

地方频道,#genre#

QZ1,https://live.qztv.cn/live/news.m3u8?auth_key=1705403931-0-0-2ec973876aeb73627fea4506bd0e7da3
QZ4,https://live.qztv.cn/live/mny.m3u8?auth_key=1705403807-0-0-c126e3408d0c70fb22416b47ed86ef26
东南卫视,http://27.148.240.138/PLTV/88888888/224/3221226754/1.m3u8
海峡卫视,http://27.148.240.138/PLTV/88888888/224/3221226748/1.m3u8
厦门卫视,http://112.50.243.8/PLTV/88888888/224/3221226781/1.m3u8$移动
厦门卫视,rtsp://27.148.239.97:554/live/ch15102712173616484873.sdp?playtype=1&boid=001&backupagent=27.148.239.97:554&clienttype=1&time=20240108194953+08&life=172800&ifpricereqsnd=0&vcdnid=001&userid=5982751283701&mediaid=ch15102712173616484873&ctype=5&TSTVTimeLife=7200&contname=&authid=0&UserLiveType=0&stbid=CA100499007037300000585FF68AB06E&nodelevel=3&terminalflag=1&profilecode=&AuthInfo=zrSuWFD00zPTxN3AAWWUfCDnJTZ0cAuCi126OdwcYAbnwJ3CoYk74BV3xVCPX264EB309X61Vl2LLRC%2FxlI04A%3D%3D&bitrate=2000&distype=0$电信

厦门1套,http://117.25.38.131:4022/rtp/239.61.3.55:9848
厦门2套,http://117.25.38.131:4022/rtp/239.61.3.56:9854
厦门3套,http://112.50.243.8/PLTV/88888888/224/3221226760/1.m3u8
福建综合,http://27.148.240.138/PLTV/88888888/224/3221226722/1.m3u8
福建公共频道,http://27.148.240.138/PLTV/88888888/224/3221226928/1.m3u8
福建新闻,http://27.148.240.138/PLTV/88888888/224/3221226736/1.m3u8
福建电视剧,http://27.148.240.138/PLTV/88888888/224/3221226732/1.m3u8
福建旅游,http://27.148.240.138/PLTV/88888888/224/3221226854/1.m3u8
福建经济生活,http://27.148.240.138/PLTV/88888888/224/3221226920/1.m3u8
福建体育,http://27.148.240.138/PLTV/88888888/224/3221226749/1.m3u8
福建少儿,http://27.148.240.138/PLTV/88888888/224/3221226738/1.m3u8
福建教育频道,http://27.148.240.138/PLTV/88888888/224/3221226884/1.m3u8
FETV,rtsp://27.148.219.129:554/live/ch17092110554866036216.sdp?playtype=1&boid=001&backupagent=27.148.219.129:554&clienttype=1&time=20191117235503+08&life=172800&ifpricereqsnd=1&vcdnid=001&userid=5922751202156&mediaid=ch17092110554866036216&ctype=2&TSTVTimeLife=7200&contname=&authid=0&terminalflag=1&UserLiveType=0&stbid=65100499007034400000288CB89A9654&nodelevel=3&AuthInfo=BESeR9eMRDi8RsZJsJm5ucAZXezSI56bZH%2B0ekJWO3KH4SV%2FW4UA%2Bi%2BwW0FMrM0jtcJ7NgDL0pa6L%2FNky0Uo7A%3D%3D&bitrate=2000


北京卫视,mitv://generationnexxxt.com:19806/8d7d0547db754c32bca6011693893b40
天津卫视,mitv://generationnexxxt.com:19806/0d7fa1ec8c4348e29bc3f09a38ae3691
河北卫视,mitv://generationnexxxt.com:19806/f0390f4cc1fa4b9991338bc6426deb17
黑龙江卫视,mitv://generationnexxxt.com:19806/2f690600a9454710b15b0e90853268c3
辽宁卫视,mitv://generationnexxxt.com:19806/4b1903b35f804f1180a4b346efbabfc9
东方卫视,mitv://generationnexxxt.com:19806/10521db17e054dbeba85448ac091ae64
江苏卫视,mitv://generationnexxxt.com:19806/13f3f27751184d95902e5c588264551e
江西卫视,mitv://generationnexxxt.com:19806/d3548b106a7d45b4972427c3a75135ab
山东卫视,mitv://generationnexxxt.com:19806/be77ccef4df042ab909e0a2586844431
东南卫视,mitv://generationnexxxt.com:19806/00aae4669ca24ddabf43997323ceef8e
湖北卫视,mitv://generationnexxxt.com:19806/7553b94400ac4d85b752579acb37c0ce
湖南卫视,mitv://generationnexxxt.com:19806/45dc7947c5574ebfb0e68e5d0a537ed0
浙江卫视,http://ali-m-l.cztv.com/channels/lantian/channel001/1080p.m3u8
浙江卫视,mitv://generationnexxxt.com:19806/7bf4b3a65eaf421ab6d71bd8dcc4547a
深圳卫视,mitv://generationnexxxt.com:19806/b8c8ef10f65649c9a43388d771203f61
广东卫视,mitv://generationnexxxt.com:19806/cf7073fbb4c5490a86aca002247700f9
广西卫视,mitv://generationnexxxt.com:19806/eb435193f43d4c8ca09c9ce477d4d7b9
重庆卫视,mitv://generationnexxxt.com:19806/c173700eaecc412695b37ac062b6abac
云南卫视,mitv://generationnexxxt.com:19806/9203ba029385410793e3f2b7bffb3335
星空卫视,mitv://generationnexxxt.com:19806/0b87528420394614b1016123ff4fda4c
大湾区卫视,mitv://generationnexxxt.com:19806/587bc565d5a4413987fdce380a48a332
珠江台,mitv://generationnexxxt.com:19806/a050c8e736174de681b13b8ebd2ce3c4
动漫秀场,mitv://generationnexxxt.com:19806/b04bd3e03b1747aab44579ca81c664c8
魅力足球,mitv://generationnexxxt.com:19806/ca7a1a18635e453a9a77e5fd5d425e89
五星体育,mitv://generationnexxxt.com:19806/d75057c993f84e7c86f94e8f1e56ad24
广东体育,mitv://generationnexxxt.com:19806/bb744a1252da46a6a2ae5546f4da7c72
私人影院,mitv://generationnexxxt.com:19806/3cfadd5e9af14d6db652b3c23acd7a7d
CHC动作电影,mitv://generationnexxxt.com:19806/1b4ebad47ed94c6291646a4a5d1ff3b6
广东影视,mitv://generationnexxxt.com:19806/f2dbc62d3b0b4af3ac2420174eadf202
CHC高清电影,mitv://generationnexxxt.com:19806/02385419696a411db959037c2190cf11
CHC家庭影院,mitv://generationnexxxt.com:19806/28fb3856055c452db8f17441c99f21cf


民视,mitv://generationnexxxt.com:19806/7b046996e7d5417eb4a619194072bbc0
台视,mitv://generationnexxxt.com:19806/9868c18e3c0940cd8aa003d9ae54f862
中视,mitv://generationnexxxt.com:19806/27826c4ed7234c0d8759bc7fe6786a18
华视,mitv://generationnexxxt.com:19806/761bc3c0662247d18b0db4da8070b7f4
公视,mitv://generationnexxxt.com:19806/5bc9388122b840f1abd2ff73c85049a6
八大第一台,mitv://generationnexxxt.com:19806/270abff66f5e496fb9c100a0dbca3fe6
八大综合台,mitv://generationnexxxt.com:19806/6c18a737c1394e59ae5072935d630f40
三立台湾台,mitv://generationnexxxt.com:19806/ff12e8f29f9b4f61a9b766709aa498f6
三立都会台,mitv://generationnexxxt.com:19806/7a36f98eee8e48a48ea64a1359083c8a
东森综合台,mitv://generationnexxxt.com:19806/a05a4d8b51f54013925315261a2c6aa9
超视,mitv://generationnexxxt.com:19806/5121f16c4b634c1683e9444aa68494b6
中天综合台,mitv://generationnexxxt.com:19806/d6433dcd1a2a4aacb1c63a81ae8f11e6
纬来综合台,mitv://generationnexxxt.com:19806/d40310ae8bba42569d3d90b4cf7d9928
中天娱乐台,mitv://generationnexxxt.com:19806/6932151dd5a74b759a053f78a719fbf3
八大娱乐台,mitv://generationnexxxt.com:19806/cea44ead76804413bd48caf76c5c2749
东森戏剧台,mitv://generationnexxxt.com:19806/4fae332a68a04f3fa77a158ac1fa4bce
八大戏剧台,mitv://generationnexxxt.com:19806/4eec82bd1e634ceab82b90e395116c83
TVBS欢乐台,mitv://generationnexxxt.com:19806/569aec3edbbc4267bd6f829b3d495d5a
纬来戏剧台,mitv://generationnexxxt.com:19806/69036778f8fc40729301e9e88aeee556
中视经典台,mitv://generationnexxxt.com:19806/8b9e15ff15474ccbbc2780c1484e50c9
中视菁采台,mitv://generationnexxxt.com:19806/ae5e01a7bc294327b88f65aa5d38217c
TVBS精采台,mitv://generationnexxxt.com:19806/2089afbec2474359add275658522922f
壹电视综合,mitv://generationnexxxt.com:19806/617d6cf150574cb485ee07aea57262fd
纬来精采,mitv://generationnexxxt.com:19806/1db14fe8aad841b4b28eca2b136e7206
ETtoday综合台,mitv://generationnexxxt.com:19806/8e1b32241c9d4d079a2df7dc99adb312
民视第一台,mitv://generationnexxxt.com:19806/b97979cec8d74feebc370f3470cc06c6
民视台湾台,mitv://generationnexxxt.com:19806/192bd12842624eb39e2f6b86eeacdca8
Nice TV靖天欢乐台,mitv://generationnexxxt.com:19806/439163cf3469473b8ffd582b687991be
八大优频道,mitv://generationnexxxt.com:19806/7abaa68442ce4ed7ad7c9772fb46eda9
CN卡通频道,mitv://generationnexxxt.com:19806/f4dd909eedc64e6b9736e248aedf6d61
MOMO亲子台,mitv://generationnexxxt.com:19806/2f2d9ad70ce7410aa99f2b9fa1753dd4
东森幼幼台,mitv://generationnexxxt.com:19806/baa16215e2224e399f6dc71eb3576ed4
尼克儿童频道,mitv://generationnexxxt.com:19806/879f28be19bc47df84ad3d5470be58d0
卫视电影台,mitv://generationnexxxt.com:19806/f5f1de75dbbf48e2a21a498977ffb8e4
东森电影台,mitv://generationnexxxt.com:19806/08435f286ac744a0942899c551209779
纬来电影台,mitv://generationnexxxt.com:19806/429796f5f00946fa933e400729286c7e
龙祥电影,mitv://generationnexxxt.com:19806/78502c9b515845a7baca6a3a6ea88b8a
HBO,mitv://generationnexxxt.com:19806/37f11d742fee447ab15f07db28095bd6
东森洋片台,mitv://generationnexxxt.com:19806/5e8420f5477344b9b7b39d9e96162ce1
AXN,mitv://generationnexxxt.com:19806/893f7dec641a42458f47ccfbd93525ba
好莱坞电影台,mitv://generationnexxxt.com:19806/9862f4958472458ca2ebc718bb92a5c6
三立iNEWS,mitv://generationnexxxt.com:19806/ac384b2c9a4a47c3a538f9116ab7e4d8
龙华偶像,mitv://generationnexxxt.com:19806/5b720b1e1b404f129e7009363d3035f8
霹雳台湾台,mitv://generationnexxxt.com:19806/dcdf778fe9ca4184ad6af3a911765cf0
公视3台,mitv://generationnexxxt.com:19806/95f2ed538e044aac891abfe6a9ce6ba7
好消息,mitv://generationnexxxt.com:19806/febf2282369d409d92d68514b72fc433
原住民电视台,mitv://generationnexxxt.com:19806/cb5b7549e3604100a605ca17c82808f5
客家电视台,mitv://generationnexxxt.com:19806/eafabb6e7c30439b8ecd35ad40a46a96
国家地理频道,mitv://generationnexxxt.com:19806/37a44d0af7634364a91f2fb8d9b9cf9b
探索频道,mitv://generationnexxxt.com:19806/9f2e92df32b34a569ad7e6818f4732fb
TLC旅游生活,mitv://generationnexxxt.com:19806/621ca70412034f5eb919c1ec03679804
动物星球,mitv://generationnexxxt.com:19806/5b41e724ea8e4e7eb92e3dac95589165
中视新闻台,mitv://generationnexxxt.com:19806/cb5965a89e434df7aeb66b2364116ae4
寰宇新闻台,mitv://generationnexxxt.com:19806/a265fb55774a4554bc2db19b16f53be6
华视新闻,mitv://generationnexxxt.com:19806/ebe8db2daafa47768f37bcae17bfe299
港台电视31,mitv://generationnexxxt.com:19806/e4b56cb972e940ee8be694602294d242
港台电视32,mitv://generationnexxxt.com:19806/9c0a161f9c59476584fe4d8effc125b6
HOY TV,mitv://generationnexxxt.com:19806/10c18372b612479086c1f259245543ff
?翡翠台(备),mitv://147.135.39.171:9906/657c8f940005cf8fa955b96f23e11195
J2,mitv://generationnexxxt.com:19806/6a623cf5c0bc4c96b8fd45a47af4a872
无线新闻台(备),mitv://147.135.39.171:9906/657c8f940000cdb0a955b82762a73640
无线新闻台,mitv://147.135.39.171:9906/657c8f93000dad85a955b78b7a3a4c4f
无线财经体育资讯台,mitv://generationnexxxt.com:19806/8bcc654c89f74ebdb4e82062ef5f998c
ViuTVsix,mitv://generationnexxxt.com:19806/ba99e7a39d9c4e74bacc5de14f58dcf6
ViuTV,mitv://generationnexxxt.com:19806/976916e8baee45a89d5e023224f7ab2b
壹电视新闻台,mitv://generationnexxxt.com:19806/31dad83ef5b74c5db225482cd2e0fbae
年代新闻,mitv://generationnexxxt.com:19806/95f67e884d88463e907c301d05fa68b7
东森新闻台,mitv://generationnexxxt.com:19806/e1a899eded4d48578084c61957fb8c2b
中天新闻台,mitv://generationnexxxt.com:19806/bd9064ee198045a386f1f2dba5073f4e
民视新闻台,mitv://generationnexxxt.com:19806/d24f18e610d248b7a450d29492b37ebf
三立新闻台,mitv://generationnexxxt.com:19806/9388262af2604cc798800736d070d39e
TVBS新闻台,mitv://generationnexxxt.com:19806/6a155a5d7bea461b980b4fa559119a60
TVBS,mitv://generationnexxxt.com:19806/9fb651a7ec2e402588a0752ba1035476
东森财经新闻台,mitv://generationnexxxt.com:19806/9193e5efd94f4991ba8bfbc98bdc3f19
非凡新闻台,mitv://generationnexxxt.com:19806/02f80f7aad2c480992e06e1bd8a7facb
凤凰中文台,mitv://generationnexxxt.com:19806/64e1ab2a000417167359b3ca0417008f
凤凰资讯台,mitv://generationnexxxt.com:19806/6684e9f6606f49fba9b6de846dbdcb64
凤凰香港台,mitv://generationnexxxt.com:19806/8e396c3ec52f4eee9e5b7868042b1bf2
TVB星河(粤),mitv://generationnexxxt.com:19806/0c08d9d705a747908c23ba652726d777
澳门-MACAU,mitv://generationnexxxt.com:19806/f9ba8df6f9ed45789e882211735e6414
澳门莲花,mitv://generationnexxxt.com:19806/4c56fbe4e68541a9a759fa269574f98b
now新闻台,mitv://generationnexxxt.com:19806/d7a5bbf5664945cc8589b36b8434d68d
HKC 18,mitv://generationnexxxt.com:19806/140377dc9e0848678d614d451d69af9e
戏曲台,mitv://generationnexxxt.com:19806/4c3b3c3a6c8849c3aa0fc9938859e134
TVB娱乐新闻台,mitv://generationnexxxt.com:19806/46bb3afe133d4cd8ac4b195c7f5f428c
翡翠台,mitv://147.135.39.171:9906/657c8f9400023bf0a955b8853ca47814
千禧经典台,mitv://generationnexxxt.com:19806/1a5b04c67ece47bb87aa482e2c73138a
Thrill,mitv://generationnexxxt.com:19806/1c3c73215afd42558101c3ee65737202
明珠台,mitv://generationnexxxt.com:19806/9993262cc067418a983f0c7ec18adef9
香港国际财经台,mitv://generationnexxxt.com:19806/6aa47af091b54d618d1513b1bc23b0b9
18台,mitv://generationnexxxt.com:19806/8bf8f53c61944785b13817297101af20
now财经台,mitv://generationnexxxt.com:19806/88f95058c046453a973e2540701ccb4e
美亚电影台(粤语),mitv://generationnexxxt.com:19806/ee16565eb5fe46be8d22cbbde1fa9fae
Hands Up,mitv://generationnexxxt.com:19806/7a79a82b627a417f897895b4adf874aa
粤语片台,mitv://generationnexxxt.com:19806/3a44c9c92439443494b8ecff6fdb2336
亚洲剧台,mitv://generationnexxxt.com:19806/ee081a662356489d8b2170952ec91d24
功夫台,mitv://generationnexxxt.com:19806/ef6373344abf4bedae4d49ac953c1742
HOY资讯台,mitv://generationnexxxt.com:19806/eb5a565eb80d40509f0a248018dfd337
黄金翡翠台,mitv://generationnexxxt.com:19806/864714d6ebe847edaa948e9104107f12
CINEMAX,mitv://generationnexxxt.com:19806/fd7fd316ff5f4ae0a79d274a86483a4f
纬来育乐台,mitv://generationnexxxt.com:19806/78b57c4d9e644fafafe01588c43b4787
纬来体育台,mitv://generationnexxxt.com:19806/79090c69d43040148deaa21d5e26c32a
ELEVEN体育1台,mitv://generationnexxxt.com:19806/fcfde35352d5464f9ed1c711ef2d05b1
JET综合台,mitv://generationnexxxt.com:19806/cbd0c62dcb2a45cfa04f672fb2c49d14
国兴卫视,mitv://generationnexxxt.com:19806/18aaee00d2af442ebb4592e15f7b2a20
STAR World,mitv://generationnexxxt.com:19806/e60c9c99922d4fed8cfb3a8333f2d360
Z频道,mitv://generationnexxxt.com:19806/8789d946039740bda334150ac3138166
Animax,mitv://generationnexxxt.com:19806/22f75ace87a545aab39a2e4cd244bbad
tvN,mitv://generationnexxxt.com:19806/5653c9fb655842ee99b4590ff903efe7
France24,mitv://generationnexxxt.com:19806/72d5e1665d3e4b729ff9dbd4325e8694
非凡商业台,mitv://generationnexxxt.com:19806/0c1ba96949414628ae64fc70c3354e7b
高点综合台,mitv://generationnexxxt.com:19806/462775e2153243fc92adec0793c638d0
BBC World News,mitv://generationnexxxt.com:19806/ecc7214268ee448ab42b65d9f2e2663a
CNBC,mitv://generationnexxxt.com:19806/b642a4ce45734a7190f0acbd8cd462dd
Bloomberg TV,mitv://generationnexxxt.com:19806/885bb543b9cb4bbeb5bcfe518fb90780
HITS,mitv://generationnexxxt.com:19806/a65416c2039f4644aeef10da853fb928
大爱2台,mitv://generationnexxxt.com:19806/2036b83c58e344c782eb154b233c8c77
ELTV生活英语台,mitv://generationnexxxt.com:19806/78c0f08e89a844ef89d6803bce27a827
靖洋卡通Nice Bingo,mitv://generationnexxxt.com:19806/1279fb2d1ae14676a31b2e5b38a2cd57
靖天卡通台,mitv://generationnexxxt.com:19806/0e27e5f319264b609ec810e126edf969
Nick Jr.,mitv://generationnexxxt.com:19806/acebbded37714fa4a5554c025873a92c
Mezzo Live,mitv://generationnexxxt.com:19806/1c1e90cd01934a5f917ec4fad5c97665
CLASSICA 古典乐,mitv://generationnexxxt.com:19806/133be9054bcd4fa68d2e34205004a51a
爱尔达体育1台(备),mitv://generationnexxxt.com:19806/1180278580d04cb490450ec59b4edc6b
爱尔达体育2台,mitv://generationnexxxt.com:19806/d1f16ee235314a0fbc33742ab7af534b
TRACE Sport Stars,mitv://generationnexxxt.com:19806/b0cb233f10e84f29910fa38e15a07035
博斯高球,mitv://generationnexxxt.com:19806/6ff0b79453d2430986930b7c84a286df
博斯高球二台,mitv://generationnexxxt.com:19806/8afa52d0fe0047f8a6d7e51f46697f93
博斯网球台,mitv://generationnexxxt.com:19806/7fb5b66ce38747de84be865952153959
博斯魅力网,mitv://generationnexxxt.com:19806/c585ebfbfc7c4260a8d9556b5409faf0
博斯无限台,mitv://generationnexxxt.com:19806/f2973cfa7c2045e6b8a184f1bf18af7c
博斯无限二台,mitv://generationnexxxt.com:19806/143f1c23ac834d28a5296d61fed9250c
博斯运动,mitv://generationnexxxt.com:19806/6293839c167e4b6393c745db434b2465
ELEVEN体育2台,mitv://generationnexxxt.com:19806/057061c0da744aa7b035169dba5ebe2a
智林体育台,mitv://generationnexxxt.com:19806/931c171e2f774f7aa1a92e97f5098c9f
博斯运动二台,mitv://generationnexxxt.com:19806/cbd52c51fbab49ae9b3bc0da9137f681
HBO强档巨献,mitv://generationnexxxt.com:19806/563a5981b8ad4df085b59ce98bbecb95
HBO原创巨献,mitv://generationnexxxt.com:19806/bd0a33ff8b6f4fe9ba7791ad73c6c16e
BBC Earth,mitv://generationnexxxt.com:19806/49261fefe28441bea7b775cc44fa16b5
Discovery Asia,mitv://generationnexxxt.com:19806/0afefbe6244c42dbac40a3d8abef8d07
Discovery科学频道,mitv://generationnexxxt.com:19806/39e1494bd82c449892c6f92a6c8dc213
DMAX,mitv://generationnexxxt.com:19806/50af7fb4500840e292bcfae4dd50e97f
EVE,mitv://generationnexxxt.com:19806/f21130546932443d98f6ec02aa4ec99a
历史频道,mitv://generationnexxxt.com:19806/e6f506b509c94bacb4a371cdbcbe7719
罪案侦缉频道,mitv://generationnexxxt.com:19806/ef7b4ee3be374092a4a0074a6be41e03
BBC Lifestyle,mitv://generationnexxxt.com:19806/178e533979bb4ec3af9190ca475f23ef
Lifetime,mitv://generationnexxxt.com:19806/112b06172cdf41cbb6990e64d30cab0c
KLT-靖天国际台,mitv://generationnexxxt.com:19806/12d39bada24843588ad72a3175b785a2
HGTV居家乐活频道,mitv://generationnexxxt.com:19806/84613e96237545769558cc572e6d1ab0
Love Nature,mitv://generationnexxxt.com:19806/574be1e2e0054216abe436413ea4221a
美食星球,mitv://generationnexxxt.com:19806/1baaeb6967434fee9bf4412904e573b0
亚洲美食频道,mitv://generationnexxxt.com:19806/5b787bd078c84a3caa09c3665c66dc50
亚洲旅游台,mitv://generationnexxxt.com:19806/259c24cb79ce4b5db1fb1e1b894c517e
EYE TV旅游台,mitv://generationnexxxt.com:19806/2d426994acef44deb401aa8a4cd5a92e
好消息2台,mitv://generationnexxxt.com:19806/2b9f20946a6147dfba8f92373fbafee5
三立综合台,mitv://generationnexxxt.com:19806/792a7263dd7b4c7484512d07f3c21083
靖天资讯台,mitv://generationnexxxt.com:19806/5c9d432112fd4d4e92263a34415293fa
靖天综合台,mitv://generationnexxxt.com:19806/ed2e3f294dcc40c1b72aba372fbed64d
靖天育乐台,mitv://generationnexxxt.com:19806/d67fd6c2e7c44e17b9e86d9073f2930e
三立戏剧台,mitv://generationnexxxt.com:19806/7a5b874b630d457bb5997a2fe4690550
龙华戏剧,mitv://generationnexxxt.com:19806/5d4f0bd2b18b4a588a0ca733569b18dd
靖天戏剧台,mitv://generationnexxxt.com:19806/1282202787324223b35e3c84d9e673c6
靖洋戏剧台,mitv://generationnexxxt.com:19806/84a559f1b4884854be933d5d4fc0d4a6
靖天日本台,mitv://generationnexxxt.com:19806/c88dcc9ddf6747b991fc1a0db939147d
i-Fun动漫台,mitv://generationnexxxt.com:19806/91a0e3fa1a714dd7b7cf55343052cd4f
韩国娱乐台,mitv://generationnexxxt.com:19806/80d680dc15ec44bea9c3a3160ecdcb14
星卫娱乐台,mitv://generationnexxxt.com:19806/e83cc99135884327a96306484b0b8685
ROCK Extreme,mitv://generationnexxxt.com:19806/fc56480dab3541a6a99d66c3d2048526
NHK新闻资讯台,mitv://generationnexxxt.com:19806/c2da55d84a72418c8f1876c25ec97a1d
美亚电影台HD,mitv://generationnexxxt.com:19806/a850e570b868424c94319a2652ca7c62
龙华电影,mitv://generationnexxxt.com:19806/1df6f5f0993a46faa17f676518654709
星卫HD电影台,mitv://generationnexxxt.com:19806/832bfeb4b3b84dd2a7428f9db69504eb
靖天映画,mitv://generationnexxxt.com:19806/b723859f3ed94e5ba712148b209eefd0
靖天电影台,mitv://generationnexxxt.com:19806/d8c581e0e1a24823a3d2110e3584ef8b
WARNER TV,mitv://generationnexxxt.com:19806/cd2062a6c5a94d548f3516d96e23deec
Star Movies HD,mitv://generationnexxxt.com:19806/cdbfcfca93f846c7bcc30d0fd108923f
AMC最爱电影,mitv://generationnexxxt.com:19806/24ce0147e36a438eab843a3168cea3bc
HBO Family,mitv://generationnexxxt.com:19806/8a0208ebdfa04b5eab112f0c8b01719c
CatchPlay电影台,mitv://generationnexxxt.com:19806/2dccaec60f0e418d82d2d0bb09f0c4a8
CinemaWorld,mitv://generationnexxxt.com:19806/e262f40881b2461f9a270b4d9d0b54c3
壹电视电影台,mitv://generationnexxxt.com:19806/1be1329b6d124745a87a16de445d2352
采昌影剧台,mitv://generationnexxxt.com:19806/a0d691053f9b4876ab2b509a62296911
佛卫慈悲台,mitv://generationnexxxt.com:19806/be70c8b5b35c4551b5c7d3c905234e69
TechStorm,mitv://generationnexxxt.com:19806/994876c6aadc4234ba73441f18d36602
EYE TV戏剧台,mitv://generationnexxxt.com:19806/2831986ed4b448c9b626788fbd3f2f89
台视新闻台,mitv://generationnexxxt.com:19806/9817b59742464113bd5656fcc7dced84
寰宇新闻台湾台,mitv://generationnexxxt.com:19806/ca27b65855704124be186aa0e5127c24
台视财经台,mitv://generationnexxxt.com:19806/e01d7738e33e456a812f7cefbf27b29a
纬来日本,mitv://generationnexxxt.com:19806/5f9d37ba1fc04a04aaec6979908294a2
爱尔达影剧台,mitv://generationnexxxt.com:19806/932d4522f2294c6a926b7ab8027c269f
民视(备),mitv://generationnexxxt.com:19806/8d864649cfc54b518b3d137d67583155
三立台湾台(备),mitv://generationnexxxt.com:19806/7554a57ea53f4c10ae4e219ac2d374c4
影迷数位电影台,mitv://generationnexxxt.com:19806/bc069c037478448a9e41dbc3e1d5d0f6
卫视中文台,mitv://generationnexxxt.com:19806/7f7bdcb1fb94430daa8ba120dcbfde4e
爱尔达体育1台,mitv://generationnexxxt.com:19806/68e521d35c0247ddbc5073dee98245a3
爱尔达体育3台,mitv://generationnexxxt.com:19806/3ebc6b89559c44dca30c4c259a5646b9
台视(备),mitv://generationnexxxt.com:19806/3c20d4387ec845149b2ded5f28805f18
爱尔达体育4台,mitv://generationnexxxt.com:19806/df4f198dbe6347e1a084c79d208f227d
中视(备),mitv://generationnexxxt.com:19806/c4ede9c3d1a84d0b9afe57622abcb9e7
华视(备),mitv://generationnexxxt.com:19806/177390ae66634acca9be01242a769660
东森新闻台(备),mitv://generationnexxxt.com:19806/35983e2efd5c44bf84bfb2977bbbc96d
镜新闻,mitv://generationnexxxt.com:19806/668a0abb880a496d8f57fad2f580566b
MTV,mitv://generationnexxxt.com:19806/eb5ba5262e2e4779a1418c78d14ad1e5
大爱,mitv://generationnexxxt.com:19806/e89ec8c592484d88bc001e8d8a6c9e31
东森购物1台,mitv://generationnexxxt.com:19806/eccc79da1c0a4b54b49a71277e1534a0
东森购物2台,mitv://generationnexxxt.com:19806/71a90a7da65142e795b97def2400e1fb




三立台湾,mitv://generationnexxxt.com:19806/7554a57ea53f4c10ae4e219ac2d374c4
民视,mitv://generationnexxxt.com:19806/7b046996e7d5417eb4a619194072bbc0
台视,mitv://generationnexxxt.com:19806/9868c18e3c0940cd8aa003d9ae54f862
大爱,mitv://generationnexxxt.com:19806/e89ec8c592484d88bc001e8d8a6c9e31
中视,mitv://generationnexxxt.com:19806/27826c4ed7234c0d8759bc7fe6786a18
霹雳台湾台,mitv://generationnexxxt.com:19806/dcdf778fe9ca4184ad6af3a911765cf0
华视,mitv://generationnexxxt.com:19806/761bc3c0662247d18b0db4da8070b7f4
公视,mitv://generationnexxxt.com:19806/5bc9388122b840f1abd2ff73c85049a6
好消息,mitv://generationnexxxt.com:19806/febf2282369d409d92d68514b72fc433
原住民电视台,mitv://generationnexxxt.com:19806/cb5b7549e3604100a605ca17c82808f5
客家电视台,mitv://generationnexxxt.com:19806/eafabb6e7c30439b8ecd35ad40a46a96
国家地理频道,mitv://generationnexxxt.com:19806/37a44d0af7634364a91f2fb8d9b9cf9b
探索频道,mitv://generationnexxxt.com:19806/9f2e92df32b34a569ad7e6818f4732fb
TLC旅游生活,mitv://generationnexxxt.com:19806/621ca70412034f5eb919c1ec03679804
动物星球,mitv://generationnexxxt.com:19806/5b41e724ea8e4e7eb92e3dac95589165
CN卡通频道,mitv://generationnexxxt.com:19806/f4dd909eedc64e6b9736e248aedf6d61
MOMO亲子台,mitv://generationnexxxt.com:19806/2f2d9ad70ce7410aa99f2b9fa1753dd4
东森幼幼台,mitv://generationnexxxt.com:19806/baa16215e2224e399f6dc71eb3576ed4
纬来综合台,mitv://generationnexxxt.com:19806/d40310ae8bba42569d3d90b4cf7d9928
八大第一台,mitv://generationnexxxt.com:19806/270abff66f5e496fb9c100a0dbca3fe6
八大综合台,mitv://generationnexxxt.com:19806/6c18a737c1394e59ae5072935d630f40
三立台湾台,mitv://generationnexxxt.com:19806/ff12e8f29f9b4f61a9b766709aa498f6
三立都会台,mitv://generationnexxxt.com:19806/7a36f98eee8e48a48ea64a1359083c8a
东森综合台,mitv://generationnexxxt.com:19806/a05a4d8b51f54013925315261a2c6aa9
超视,mitv://generationnexxxt.com:19806/5121f16c4b634c1683e9444aa68494b6
中天综合台,mitv://generationnexxxt.com:19806/d6433dcd1a2a4aacb1c63a81ae8f11e6
中天娱乐台,mitv://generationnexxxt.com:19806/6932151dd5a74b759a053f78a719fbf3
东森戏剧台,mitv://generationnexxxt.com:19806/4fae332a68a04f3fa77a158ac1fa4bce
八大戏剧台,mitv://generationnexxxt.com:19806/4eec82bd1e634ceab82b90e395116c83
TVBS欢乐台,mitv://generationnexxxt.com:19806/569aec3edbbc4267bd6f829b3d495d5a
纬来戏剧台,mitv://generationnexxxt.com:19806/69036778f8fc40729301e9e88aeee556
高点综合台,mitv://generationnexxxt.com:19806/462775e2153243fc92adec0793c638d0
BBC World News,mitv://generationnexxxt.com:19806/ecc7214268ee448ab42b65d9f2e2663a
CNBC,mitv://generationnexxxt.com:19806/b642a4ce45734a7190f0acbd8cd462dd
Bloomberg TV,mitv://generationnexxxt.com:19806/885bb543b9cb4bbeb5bcfe518fb90780
HITS,mitv://generationnexxxt.com:19806/a65416c2039f4644aeef10da853fb928
壹电视新闻台,mitv://generationnexxxt.com:19806/31dad83ef5b74c5db225482cd2e0fbae
年代新闻,mitv://generationnexxxt.com:19806/95f67e884d88463e907c301d05fa68b7
东森新闻台,mitv://generationnexxxt.com:19806/e1a899eded4d48578084c61957fb8c2b
中天新闻台,mitv://generationnexxxt.com:19806/bd9064ee198045a386f1f2dba5073f4e
民视新闻台,mitv://generationnexxxt.com:19806/d24f18e610d248b7a450d29492b37ebf
三立新闻台,mitv://generationnexxxt.com:19806/9388262af2604cc798800736d070d39e
TVBS新闻台,mitv://generationnexxxt.com:19806/6a155a5d7bea461b980b4fa559119a60
TVBS,mitv://generationnexxxt.com:19806/9fb651a7ec2e402588a0752ba1035476
东森财经新闻台,mitv://generationnexxxt.com:19806/9193e5efd94f4991ba8bfbc98bdc3f19
非凡新闻台,mitv://generationnexxxt.com:19806/02f80f7aad2c480992e06e1bd8a7facb
卫视电影台,mitv://generationnexxxt.com:19806/f5f1de75dbbf48e2a21a498977ffb8e4
东森电影台,mitv://generationnexxxt.com:19806/08435f286ac744a0942899c551209779
纬来电影台,mitv://generationnexxxt.com:19806/429796f5f00946fa933e400729286c7e
龙祥电影,mitv://generationnexxxt.com:19806/78502c9b515845a7baca6a3a6ea88b8a
HBO,mitv://generationnexxxt.com:19806/37f11d742fee447ab15f07db28095bd6
东森洋片台,mitv://generationnexxxt.com:19806/5e8420f5477344b9b7b39d9e96162ce1
AXN,mitv://generationnexxxt.com:19806/893f7dec641a42458f47ccfbd93525ba
好莱坞电影台,mitv://generationnexxxt.com:19806/9862f4958472458ca2ebc718bb92a5c6
CINEMAX,mitv://generationnexxxt.com:19806/fd7fd316ff5f4ae0a79d274a86483a4f
纬来育乐台,mitv://generationnexxxt.com:19806/78b57c4d9e644fafafe01588c43b4787
纬来体育台,mitv://generationnexxxt.com:19806/79090c69d43040148deaa21d5e26c32a
ELEVEN体育1台,mitv://generationnexxxt.com:19806/fcfde35352d5464f9ed1c711ef2d05b1
JET综合台,mitv://generationnexxxt.com:19806/cbd0c62dcb2a45cfa04f672fb2c49d14
国兴卫视,mitv://generationnexxxt.com:19806/18aaee00d2af442ebb4592e15f7b2a20
STAR World,mitv://generationnexxxt.com:19806/e60c9c99922d4fed8cfb3a8333f2d360
Z频道,mitv://generationnexxxt.com:19806/8789d946039740bda334150ac3138166
Animax,mitv://generationnexxxt.com:19806/22f75ace87a545aab39a2e4cd244bbad
尼克儿童频道,mitv://generationnexxxt.com:19806/879f28be19bc47df84ad3d5470be58d0
八大娱乐台,mitv://generationnexxxt.com:19806/cea44ead76804413bd48caf76c5c2749
三立iNEWS,mitv://generationnexxxt.com:19806/ac384b2c9a4a47c3a538f9116ab7e4d8
龙华偶像,mitv://generationnexxxt.com:19806/5b720b1e1b404f129e7009363d3035f8
tvN,mitv://generationnexxxt.com:19806/5653c9fb655842ee99b4590ff903efe7
France24,mitv://generationnexxxt.com:19806/72d5e1665d3e4b729ff9dbd4325e8694
非凡商业台,mitv://generationnexxxt.com:19806/0c1ba96949414628ae64fc70c3354e7b
公视3台,mitv://generationnexxxt.com:19806/95f2ed538e044aac891abfe6a9ce6ba7
大爱2台,mitv://generationnexxxt.com:19806/2036b83c58e344c782eb154b233c8c77
ELTV生活英语台,mitv://generationnexxxt.com:19806/78c0f08e89a844ef89d6803bce27a827
靖洋卡通Nice Bingo,mitv://generationnexxxt.com:19806/1279fb2d1ae14676a31b2e5b38a2cd57
靖天卡通台,mitv://generationnexxxt.com:19806/0e27e5f319264b609ec810e126edf969
Nick Jr.,mitv://generationnexxxt.com:19806/acebbded37714fa4a5554c025873a92c
Mezzo Live,mitv://generationnexxxt.com:19806/1c1e90cd01934a5f917ec4fad5c97665
CLASSICA 古典乐,mitv://generationnexxxt.com:19806/133be9054bcd4fa68d2e34205004a51a
爱尔达体育1台(备),mitv://generationnexxxt.com:19806/1180278580d04cb490450ec59b4edc6b
爱尔达体育2台,mitv://generationnexxxt.com:19806/d1f16ee235314a0fbc33742ab7af534b
TRACE Sport Stars,mitv://generationnexxxt.com:19806/b0cb233f10e84f29910fa38e15a07035
博斯高球,mitv://generationnexxxt.com:19806/6ff0b79453d2430986930b7c84a286df
博斯高球二台,mitv://generationnexxxt.com:19806/8afa52d0fe0047f8a6d7e51f46697f93
博斯网球台,mitv://generationnexxxt.com:19806/7fb5b66ce38747de84be865952153959
博斯魅力网,mitv://generationnexxxt.com:19806/c585ebfbfc7c4260a8d9556b5409faf0
博斯无限台,mitv://generationnexxxt.com:19806/f2973cfa7c2045e6b8a184f1bf18af7c
博斯无限二台,mitv://generationnexxxt.com:19806/143f1c23ac834d28a5296d61fed9250c
博斯运动,mitv://generationnexxxt.com:19806/6293839c167e4b6393c745db434b2465
ELEVEN体育2台,mitv://generationnexxxt.com:19806/057061c0da744aa7b035169dba5ebe2a
智林体育台,mitv://generationnexxxt.com:19806/931c171e2f774f7aa1a92e97f5098c9f
博斯运动二台,mitv://generationnexxxt.com:19806/cbd52c51fbab49ae9b3bc0da9137f681
HBO强档巨献,mitv://generationnexxxt.com:19806/563a5981b8ad4df085b59ce98bbecb95
HBO原创巨献,mitv://generationnexxxt.com:19806/bd0a33ff8b6f4fe9ba7791ad73c6c16e
BBC Earth,mitv://generationnexxxt.com:19806/49261fefe28441bea7b775cc44fa16b5
Discovery Asia,mitv://generationnexxxt.com:19806/0afefbe6244c42dbac40a3d8abef8d07
Discovery科学频道,mitv://generationnexxxt.com:19806/39e1494bd82c449892c6f92a6c8dc213
DMAX,mitv://generationnexxxt.com:19806/50af7fb4500840e292bcfae4dd50e97f
EVE,mitv://generationnexxxt.com:19806/f21130546932443d98f6ec02aa4ec99a
历史频道,mitv://generationnexxxt.com:19806/e6f506b509c94bacb4a371cdbcbe7719
罪案侦缉频道,mitv://generationnexxxt.com:19806/ef7b4ee3be374092a4a0074a6be41e03
BBC Lifestyle,mitv://generationnexxxt.com:19806/178e533979bb4ec3af9190ca475f23ef
Lifetime,mitv://generationnexxxt.com:19806/112b06172cdf41cbb6990e64d30cab0c
KLT-靖天国际台,mitv://generationnexxxt.com:19806/12d39bada24843588ad72a3175b785a2
HGTV居家乐活频道,mitv://generationnexxxt.com:19806/84613e96237545769558cc572e6d1ab0
Love Nature,mitv://generationnexxxt.com:19806/574be1e2e0054216abe436413ea4221a
美食星球,mitv://generationnexxxt.com:19806/1baaeb6967434fee9bf4412904e573b0
亚洲美食频道,mitv://generationnexxxt.com:19806/5b787bd078c84a3caa09c3665c66dc50
亚洲旅游台,mitv://generationnexxxt.com:19806/259c24cb79ce4b5db1fb1e1b894c517e
EYE TV旅游台,mitv://generationnexxxt.com:19806/2d426994acef44deb401aa8a4cd5a92e
好消息2台,mitv://generationnexxxt.com:19806/2b9f20946a6147dfba8f92373fbafee5
三立综合台,mitv://generationnexxxt.com:19806/792a7263dd7b4c7484512d07f3c21083
靖天资讯台,mitv://generationnexxxt.com:19806/5c9d432112fd4d4e92263a34415293fa
靖天综合台,mitv://generationnexxxt.com:19806/ed2e3f294dcc40c1b72aba372fbed64d
靖天育乐台,mitv://generationnexxxt.com:19806/d67fd6c2e7c44e17b9e86d9073f2930e
中视经典台,mitv://generationnexxxt.com:19806/8b9e15ff15474ccbbc2780c1484e50c9
中视菁采台,mitv://generationnexxxt.com:19806/ae5e01a7bc294327b88f65aa5d38217c
TVBS精采台,mitv://generationnexxxt.com:19806/2089afbec2474359add275658522922f
壹电视综合,mitv://generationnexxxt.com:19806/617d6cf150574cb485ee07aea57262fd
纬来精采,mitv://generationnexxxt.com:19806/1db14fe8aad841b4b28eca2b136e7206
ETtoday综合台,mitv://generationnexxxt.com:19806/8e1b32241c9d4d079a2df7dc99adb312
民视第一台,mitv://generationnexxxt.com:19806/b97979cec8d74feebc370f3470cc06c6
民视台湾台,mitv://generationnexxxt.com:19806/192bd12842624eb39e2f6b86eeacdca8
Nice TV靖天欢乐台,mitv://generationnexxxt.com:19806/439163cf3469473b8ffd582b687991be
八大优频道,mitv://generationnexxxt.com:19806/7abaa68442ce4ed7ad7c9772fb46eda9
三立戏剧台,mitv://generationnexxxt.com:19806/7a5b874b630d457bb5997a2fe4690550
龙华戏剧,mitv://generationnexxxt.com:19806/5d4f0bd2b18b4a588a0ca733569b18dd
靖天戏剧台,mitv://generationnexxxt.com:19806/1282202787324223b35e3c84d9e673c6
靖洋戏剧台,mitv://generationnexxxt.com:19806/84a559f1b4884854be933d5d4fc0d4a6
靖天日本台,mitv://generationnexxxt.com:19806/c88dcc9ddf6747b991fc1a0db939147d
i-Fun动漫台,mitv://generationnexxxt.com:19806/91a0e3fa1a714dd7b7cf55343052cd4f
韩国娱乐台,mitv://generationnexxxt.com:19806/80d680dc15ec44bea9c3a3160ecdcb14
星卫娱乐台,mitv://generationnexxxt.com:19806/e83cc99135884327a96306484b0b8685
ROCK Extreme,mitv://generationnexxxt.com:19806/fc56480dab3541a6a99d66c3d2048526
中视新闻台,mitv://generationnexxxt.com:19806/cb5965a89e434df7aeb66b2364116ae4
寰宇新闻台,mitv://generationnexxxt.com:19806/a265fb55774a4554bc2db19b16f53be6
华视新闻,mitv://generationnexxxt.com:19806/ebe8db2daafa47768f37bcae17bfe299
NHK新闻资讯台,mitv://generationnexxxt.com:19806/c2da55d84a72418c8f1876c25ec97a1d
美亚电影台HD,mitv://generationnexxxt.com:19806/a850e570b868424c94319a2652ca7c62
龙华电影,mitv://generationnexxxt.com:19806/1df6f5f0993a46faa17f676518654709
星卫HD电影台,mitv://generationnexxxt.com:19806/832bfeb4b3b84dd2a7428f9db69504eb
靖天映画,mitv://generationnexxxt.com:19806/b723859f3ed94e5ba712148b209eefd0
靖天电影台,mitv://generationnexxxt.com:19806/d8c581e0e1a24823a3d2110e3584ef8b
WARNER TV,mitv://generationnexxxt.com:19806/cd2062a6c5a94d548f3516d96e23deec
Star Movies HD,mitv://generationnexxxt.com:19806/cdbfcfca93f846c7bcc30d0fd108923f
AMC最爱电影,mitv://generationnexxxt.com:19806/24ce0147e36a438eab843a3168cea3bc
HBO Family,mitv://generationnexxxt.com:19806/8a0208ebdfa04b5eab112f0c8b01719c
CatchPlay电影台,mitv://generationnexxxt.com:19806/2dccaec60f0e418d82d2d0bb09f0c4a8
CinemaWorld,mitv://generationnexxxt.com:19806/e262f40881b2461f9a270b4d9d0b54c3
壹电视电影台,mitv://generationnexxxt.com:19806/1be1329b6d124745a87a16de445d2352
采昌影剧台,mitv://generationnexxxt.com:19806/a0d691053f9b4876ab2b509a62296911
佛卫慈悲台,mitv://generationnexxxt.com:19806/be70c8b5b35c4551b5c7d3c905234e69
TechStorm,mitv://generationnexxxt.com:19806/994876c6aadc4234ba73441f18d36602
EYE TV戏剧台,mitv://generationnexxxt.com:19806/2831986ed4b448c9b626788fbd3f2f89
台视新闻台,mitv://generationnexxxt.com:19806/9817b59742464113bd5656fcc7dced84
寰宇新闻台湾台,mitv://generationnexxxt.com:19806/ca27b65855704124be186aa0e5127c24
台视财经台,mitv://generationnexxxt.com:19806/e01d7738e33e456a812f7cefbf27b29a
纬来日本,mitv://generationnexxxt.com:19806/5f9d37ba1fc04a04aaec6979908294a2
爱尔达影剧台,mitv://generationnexxxt.com:19806/932d4522f2294c6a926b7ab8027c269f
民视(备),mitv://generationnexxxt.com:19806/8d864649cfc54b518b3d137d67583155
三立台湾台(备),mitv://generationnexxxt.com:19806/7554a57ea53f4c10ae4e219ac2d374c4
影迷数位电影台,mitv://generationnexxxt.com:19806/bc069c037478448a9e41dbc3e1d5d0f6
卫视中文台,mitv://generationnexxxt.com:19806/7f7bdcb1fb94430daa8ba120dcbfde4e
爱尔达体育1台,mitv://generationnexxxt.com:19806/68e521d35c0247ddbc5073dee98245a3
爱尔达体育3台,mitv://generationnexxxt.com:19806/3ebc6b89559c44dca30c4c259a5646b9
台视(备),mitv://generationnexxxt.com:19806/3c20d4387ec845149b2ded5f28805f18
爱尔达体育4台,mitv://generationnexxxt.com:19806/df4f198dbe6347e1a084c79d208f227d
中视(备),mitv://generationnexxxt.com:19806/c4ede9c3d1a84d0b9afe57622abcb9e7
华视(备),mitv://generationnexxxt.com:19806/177390ae66634acca9be01242a769660
东森新闻台(备),mitv://generationnexxxt.com:19806/35983e2efd5c44bf84bfb2977bbbc96d
镜新闻,mitv://generationnexxxt.com:19806/668a0abb880a496d8f57fad2f580566b
MTV,mitv://generationnexxxt.com:19806/eb5ba5262e2e4779a1418c78d14ad1e5
私人影院,mitv://generationnexxxt.com:19806/3cfadd5e9af14d6db652b3c23acd7a7d
港台电视31,mitv://generationnexxxt.com:19806/e4b56cb972e940ee8be694602294d242
港台电视32,mitv://generationnexxxt.com:19806/9c0a161f9c59476584fe4d8effc125b6
HOY TV,mitv://generationnexxxt.com:19806/10c18372b612479086c1f259245543ff
?翡翠台(备),mitv://147.135.39.171:9906/657c8f940005cf8fa955b96f23e11195
J2,mitv://generationnexxxt.com:19806/6a623cf5c0bc4c96b8fd45a47af4a872
无线新闻台(备),mitv://147.135.39.171:9906/657c8f940000cdb0a955b82762a73640
无线新闻台,mitv://147.135.39.171:9906/657c8f93000dad85a955b78b7a3a4c4f
无线财经体育资讯台,mitv://generationnexxxt.com:19806/8bcc654c89f74ebdb4e82062ef5f998c
ViuTVsix,mitv://generationnexxxt.com:19806/ba99e7a39d9c4e74bacc5de14f58dcf6
ViuTV,mitv://generationnexxxt.com:19806/976916e8baee45a89d5e023224f7ab2b
凤凰中文台,mitv://generationnexxxt.com:19806/64e1ab2a000417167359b3ca0417008f
凤凰资讯台,mitv://generationnexxxt.com:19806/6684e9f6606f49fba9b6de846dbdcb64
凤凰香港台,mitv://generationnexxxt.com:19806/8e396c3ec52f4eee9e5b7868042b1bf2
TVB星河(粤),mitv://generationnexxxt.com:19806/0c08d9d705a747908c23ba652726d777
澳门-MACAU,mitv://generationnexxxt.com:19806/f9ba8df6f9ed45789e882211735e6414
澳门莲花,mitv://generationnexxxt.com:19806/4c56fbe4e68541a9a759fa269574f98b
now新闻台,mitv://generationnexxxt.com:19806/d7a5bbf5664945cc8589b36b8434d68d
HKC 18,mitv://generationnexxxt.com:19806/140377dc9e0848678d614d451d69af9e
戏曲台,mitv://generationnexxxt.com:19806/4c3b3c3a6c8849c3aa0fc9938859e134
TVB娱乐新闻台,mitv://generationnexxxt.com:19806/46bb3afe133d4cd8ac4b195c7f5f428c
翡翠台,mitv://147.135.39.171:9906/657c8f9400023bf0a955b8853ca47814
千禧经典台,mitv://generationnexxxt.com:19806/1a5b04c67ece47bb87aa482e2c73138a
Thrill,mitv://generationnexxxt.com:19806/1c3c73215afd42558101c3ee65737202
明珠台,mitv://generationnexxxt.com:19806/9993262cc067418a983f0c7ec18adef9
香港国际财经台,mitv://generationnexxxt.com:19806/6aa47af091b54d618d1513b1bc23b0b9
18台,mitv://generationnexxxt.com:19806/8bf8f53c61944785b13817297101af20
now财经台,mitv://generationnexxxt.com:19806/88f95058c046453a973e2540701ccb4e
美亚电影台(粤语),mitv://generationnexxxt.com:19806/ee16565eb5fe46be8d22cbbde1fa9fae
Hands Up,mitv://generationnexxxt.com:19806/7a79a82b627a417f897895b4adf874aa
粤语片台,mitv://generationnexxxt.com:19806/3a44c9c92439443494b8ecff6fdb2336
亚洲剧台,mitv://generationnexxxt.com:19806/ee081a662356489d8b2170952ec91d24
功夫台,mitv://generationnexxxt.com:19806/ef6373344abf4bedae4d49ac953c1742
HOY资讯台,mitv://generationnexxxt.com:19806/eb5a565eb80d40509f0a248018dfd337
黄金翡翠台,mitv://generationnexxxt.com:19806/864714d6ebe847edaa948e9104107f12





晴天港湾 全网,#genre#
民视,mitv://generationnexxxt.com:19806/7b046996e7d5417eb4a619194072bbc0
台视,mitv://generationnexxxt.com:19806/9868c18e3c0940cd8aa003d9ae54f862
大爱,mitv://generationnexxxt.com:19806/e89ec8c592484d88bc001e8d8a6c9e31
中视,mitv://generationnexxxt.com:19806/27826c4ed7234c0d8759bc7fe6786a18
霹雳台湾台,mitv://generationnexxxt.com:19806/dcdf778fe9ca4184ad6af3a911765cf0
华视,mitv://generationnexxxt.com:19806/761bc3c0662247d18b0db4da8070b7f4
公视,mitv://generationnexxxt.com:19806/5bc9388122b840f1abd2ff73c85049a6
好消息,mitv://generationnexxxt.com:19806/febf2282369d409d92d68514b72fc433
原住民电视台,mitv://generationnexxxt.com:19806/cb5b7549e3604100a605ca17c82808f5
客家电视台,mitv://generationnexxxt.com:19806/eafabb6e7c30439b8ecd35ad40a46a96
国家地理频道,mitv://generationnexxxt.com:19806/37a44d0af7634364a91f2fb8d9b9cf9b
探索频道,mitv://generationnexxxt.com:19806/9f2e92df32b34a569ad7e6818f4732fb
TLC旅游生活,mitv://generationnexxxt.com:19806/621ca70412034f5eb919c1ec03679804
动物星球,mitv://generationnexxxt.com:19806/5b41e724ea8e4e7eb92e3dac95589165
CN卡通频道,mitv://generationnexxxt.com:19806/f4dd909eedc64e6b9736e248aedf6d61
MOMO亲子台,mitv://generationnexxxt.com:19806/2f2d9ad70ce7410aa99f2b9fa1753dd4
东森幼幼台,mitv://generationnexxxt.com:19806/baa16215e2224e399f6dc71eb3576ed4
纬来综合台,mitv://generationnexxxt.com:19806/d40310ae8bba42569d3d90b4cf7d9928
八大第一台,mitv://generationnexxxt.com:19806/270abff66f5e496fb9c100a0dbca3fe6
八大综合台,mitv://generationnexxxt.com:19806/6c18a737c1394e59ae5072935d630f40
三立台湾台,mitv://generationnexxxt.com:19806/ff12e8f29f9b4f61a9b766709aa498f6
三立都会台,mitv://generationnexxxt.com:19806/7a36f98eee8e48a48ea64a1359083c8a
东森综合台,mitv://generationnexxxt.com:19806/a05a4d8b51f54013925315261a2c6aa9
超视,mitv://generationnexxxt.com:19806/5121f16c4b634c1683e9444aa68494b6
中天综合台,mitv://generationnexxxt.com:19806/d6433dcd1a2a4aacb1c63a81ae8f11e6
中天娱乐台,mitv://generationnexxxt.com:19806/6932151dd5a74b759a053f78a719fbf3
东森戏剧台,mitv://generationnexxxt.com:19806/4fae332a68a04f3fa77a158ac1fa4bce
八大戏剧台,mitv://generationnexxxt.com:19806/4eec82bd1e634ceab82b90e395116c83
TVBS欢乐台,mitv://generationnexxxt.com:19806/569aec3edbbc4267bd6f829b3d495d5a
纬来戏剧台,mitv://generationnexxxt.com:19806/69036778f8fc40729301e9e88aeee556
高点综合台,mitv://generationnexxxt.com:19806/462775e2153243fc92adec0793c638d0
BBC World News,mitv://generationnexxxt.com:19806/ecc7214268ee448ab42b65d9f2e2663a
CNBC,mitv://generationnexxxt.com:19806/b642a4ce45734a7190f0acbd8cd462dd
Bloomberg TV,mitv://generationnexxxt.com:19806/885bb543b9cb4bbeb5bcfe518fb90780
HITS,mitv://generationnexxxt.com:19806/a65416c2039f4644aeef10da853fb928
壹电视新闻台,mitv://generationnexxxt.com:19806/31dad83ef5b74c5db225482cd2e0fbae
年代新闻,mitv://generationnexxxt.com:19806/95f67e884d88463e907c301d05fa68b7
东森新闻台,mitv://generationnexxxt.com:19806/e1a899eded4d48578084c61957fb8c2b
中天新闻台,mitv://generationnexxxt.com:19806/bd9064ee198045a386f1f2dba5073f4e
民视新闻台,mitv://generationnexxxt.com:19806/d24f18e610d248b7a450d29492b37ebf
三立新闻台,mitv://generationnexxxt.com:19806/9388262af2604cc798800736d070d39e
TVBS新闻台,mitv://generationnexxxt.com:19806/6a155a5d7bea461b980b4fa559119a60
TVBS,mitv://generationnexxxt.com:19806/9fb651a7ec2e402588a0752ba1035476
东森财经新闻台,mitv://generationnexxxt.com:19806/9193e5efd94f4991ba8bfbc98bdc3f19
非凡新闻台,mitv://generationnexxxt.com:19806/02f80f7aad2c480992e06e1bd8a7facb
卫视电影台,mitv://generationnexxxt.com:19806/f5f1de75dbbf48e2a21a498977ffb8e4
东森电影台,mitv://generationnexxxt.com:19806/08435f286ac744a0942899c551209779
纬来电影台,mitv://generationnexxxt.com:19806/429796f5f00946fa933e400729286c7e
龙祥电影,mitv://generationnexxxt.com:19806/78502c9b515845a7baca6a3a6ea88b8a
HBO,mitv://generationnexxxt.com:19806/37f11d742fee447ab15f07db28095bd6
东森洋片台,mitv://generationnexxxt.com:19806/5e8420f5477344b9b7b39d9e96162ce1
AXN,mitv://generationnexxxt.com:19806/893f7dec641a42458f47ccfbd93525ba
好莱坞电影台,mitv://generationnexxxt.com:19806/9862f4958472458ca2ebc718bb92a5c6
CINEMAX,mitv://generationnexxxt.com:19806/fd7fd316ff5f4ae0a79d274a86483a4f
纬来育乐台,mitv://generationnexxxt.com:19806/78b57c4d9e644fafafe01588c43b4787
纬来体育台,mitv://generationnexxxt.com:19806/79090c69d43040148deaa21d5e26c32a
ELEVEN体育1台,mitv://generationnexxxt.com:19806/fcfde35352d5464f9ed1c711ef2d05b1
JET综合台,mitv://generationnexxxt.com:19806/cbd0c62dcb2a45cfa04f672fb2c49d14
国兴卫视,mitv://generationnexxxt.com:19806/18aaee00d2af442ebb4592e15f7b2a20
STAR World,mitv://generationnexxxt.com:19806/e60c9c99922d4fed8cfb3a8333f2d360
Z频道,mitv://generationnexxxt.com:19806/8789d946039740bda334150ac3138166
Animax,mitv://generationnexxxt.com:19806/22f75ace87a545aab39a2e4cd244bbad
尼克儿童频道,mitv://generationnexxxt.com:19806/879f28be19bc47df84ad3d5470be58d0
八大娱乐台,mitv://generationnexxxt.com:19806/cea44ead76804413bd48caf76c5c2749
三立iNEWS,mitv://generationnexxxt.com:19806/ac384b2c9a4a47c3a538f9116ab7e4d8
龙华偶像,mitv://generationnexxxt.com:19806/5b720b1e1b404f129e7009363d3035f8
tvN,mitv://generationnexxxt.com:19806/5653c9fb655842ee99b4590ff903efe7
France24,mitv://generationnexxxt.com:19806/72d5e1665d3e4b729ff9dbd4325e8694
非凡商业台,mitv://generationnexxxt.com:19806/0c1ba96949414628ae64fc70c3354e7b
公视3台,mitv://generationnexxxt.com:19806/95f2ed538e044aac891abfe6a9ce6ba7
大爱2台,mitv://generationnexxxt.com:19806/2036b83c58e344c782eb154b233c8c77
ELTV生活英语台,mitv://generationnexxxt.com:19806/78c0f08e89a844ef89d6803bce27a827
靖洋卡通Nice Bingo,mitv://generationnexxxt.com:19806/1279fb2d1ae14676a31b2e5b38a2cd57
靖天卡通台,mitv://generationnexxxt.com:19806/0e27e5f319264b609ec810e126edf969
Nick Jr.,mitv://generationnexxxt.com:19806/acebbded37714fa4a5554c025873a92c
Mezzo Live,mitv://generationnexxxt.com:19806/1c1e90cd01934a5f917ec4fad5c97665
CLASSICA 古典乐,mitv://generationnexxxt.com:19806/133be9054bcd4fa68d2e34205004a51a
爱尔达体育1台(备),mitv://generationnexxxt.com:19806/1180278580d04cb490450ec59b4edc6b
爱尔达体育2台,mitv://generationnexxxt.com:19806/d1f16ee235314a0fbc33742ab7af534b
TRACE Sport Stars,mitv://generationnexxxt.com:19806/b0cb233f10e84f29910fa38e15a07035
博斯高球,mitv://generationnexxxt.com:19806/6ff0b79453d2430986930b7c84a286df
博斯高球二台,mitv://generationnexxxt.com:19806/8afa52d0fe0047f8a6d7e51f46697f93
博斯网球台,mitv://generationnexxxt.com:19806/7fb5b66ce38747de84be865952153959
博斯魅力网,mitv://generationnexxxt.com:19806/c585ebfbfc7c4260a8d9556b5409faf0
博斯无限台,mitv://generationnexxxt.com:19806/f2973cfa7c2045e6b8a184f1bf18af7c
博斯无限二台,mitv://generationnexxxt.com:19806/143f1c23ac834d28a5296d61fed9250c
博斯运动,mitv://generationnexxxt.com:19806/6293839c167e4b6393c745db434b2465
ELEVEN体育2台,mitv://generationnexxxt.com:19806/057061c0da744aa7b035169dba5ebe2a
智林体育台,mitv://generationnexxxt.com:19806/931c171e2f774f7aa1a92e97f5098c9f
博斯运动二台,mitv://generationnexxxt.com:19806/cbd52c51fbab49ae9b3bc0da9137f681
HBO强档巨献,mitv://generationnexxxt.com:19806/563a5981b8ad4df085b59ce98bbecb95
HBO原创巨献,mitv://generationnexxxt.com:19806/bd0a33ff8b6f4fe9ba7791ad73c6c16e
BBC Earth,mitv://generationnexxxt.com:19806/49261fefe28441bea7b775cc44fa16b5
Discovery Asia,mitv://generationnexxxt.com:19806/0afefbe6244c42dbac40a3d8abef8d07
Discovery科学频道,mitv://generationnexxxt.com:19806/39e1494bd82c449892c6f92a6c8dc213
DMAX,mitv://generationnexxxt.com:19806/50af7fb4500840e292bcfae4dd50e97f
EVE,mitv://generationnexxxt.com:19806/f21130546932443d98f6ec02aa4ec99a
历史频道,mitv://generationnexxxt.com:19806/e6f506b509c94bacb4a371cdbcbe7719
罪案侦缉频道,mitv://generationnexxxt.com:19806/ef7b4ee3be374092a4a0074a6be41e03
BBC Lifestyle,mitv://generationnexxxt.com:19806/178e533979bb4ec3af9190ca475f23ef
Lifetime,mitv://generationnexxxt.com:19806/112b06172cdf41cbb6990e64d30cab0c
KLT-靖天国际台,mitv://generationnexxxt.com:19806/12d39bada24843588ad72a3175b785a2
HGTV居家乐活频道,mitv://generationnexxxt.com:19806/84613e96237545769558cc572e6d1ab0
Love Nature,mitv://generationnexxxt.com:19806/574be1e2e0054216abe436413ea4221a
美食星球,mitv://generationnexxxt.com:19806/1baaeb6967434fee9bf4412904e573b0
亚洲美食频道,mitv://generationnexxxt.com:19806/5b787bd078c84a3caa09c3665c66dc50
亚洲旅游台,mitv://generationnexxxt.com:19806/259c24cb79ce4b5db1fb1e1b894c517e
EYE TV旅游台,mitv://generationnexxxt.com:19806/2d426994acef44deb401aa8a4cd5a92e
好消息2台,mitv://generationnexxxt.com:19806/2b9f20946a6147dfba8f92373fbafee5
三立综合台,mitv://generationnexxxt.com:19806/792a7263dd7b4c7484512d07f3c21083
靖天资讯台,mitv://generationnexxxt.com:19806/5c9d432112fd4d4e92263a34415293fa
靖天综合台,mitv://generationnexxxt.com:19806/ed2e3f294dcc40c1b72aba372fbed64d
靖天育乐台,mitv://generationnexxxt.com:19806/d67fd6c2e7c44e17b9e86d9073f2930e
中视经典台,mitv://generationnexxxt.com:19806/8b9e15ff15474ccbbc2780c1484e50c9
中视菁采台,mitv://generationnexxxt.com:19806/ae5e01a7bc294327b88f65aa5d38217c
TVBS精采台,mitv://generationnexxxt.com:19806/2089afbec2474359add275658522922f
壹电视综合,mitv://generationnexxxt.com:19806/617d6cf150574cb485ee07aea57262fd
纬来精采,mitv://generationnexxxt.com:19806/1db14fe8aad841b4b28eca2b136e7206
ETtoday综合台,mitv://generationnexxxt.com:19806/8e1b32241c9d4d079a2df7dc99adb312
民视第一台,mitv://generationnexxxt.com:19806/b97979cec8d74feebc370f3470cc06c6
民视台湾台,mitv://generationnexxxt.com:19806/192bd12842624eb39e2f6b86eeacdca8
Nice TV靖天欢乐台,mitv://generationnexxxt.com:19806/439163cf3469473b8ffd582b687991be
八大优频道,mitv://generationnexxxt.com:19806/7abaa68442ce4ed7ad7c9772fb46eda9
三立戏剧台,mitv://generationnexxxt.com:19806/7a5b874b630d457bb5997a2fe4690550
龙华戏剧,mitv://generationnexxxt.com:19806/5d4f0bd2b18b4a588a0ca733569b18dd
靖天戏剧台,mitv://generationnexxxt.com:19806/1282202787324223b35e3c84d9e673c6
靖洋戏剧台,mitv://generationnexxxt.com:19806/84a559f1b4884854be933d5d4fc0d4a6
靖天日本台,mitv://generationnexxxt.com:19806/c88dcc9ddf6747b991fc1a0db939147d
i-Fun动漫台,mitv://generationnexxxt.com:19806/91a0e3fa1a714dd7b7cf55343052cd4f
韩国娱乐台,mitv://generationnexxxt.com:19806/80d680dc15ec44bea9c3a3160ecdcb14
星卫娱乐台,mitv://generationnexxxt.com:19806/e83cc99135884327a96306484b0b8685
ROCK Extreme,mitv://generationnexxxt.com:19806/fc56480dab3541a6a99d66c3d2048526
中视新闻台,mitv://generationnexxxt.com:19806/cb5965a89e434df7aeb66b2364116ae4
寰宇新闻台,mitv://generationnexxxt.com:19806/a265fb55774a4554bc2db19b16f53be6
华视新闻,mitv://generationnexxxt.com:19806/ebe8db2daafa47768f37bcae17bfe299
NHK新闻资讯台,mitv://generationnexxxt.com:19806/c2da55d84a72418c8f1876c25ec97a1d
美亚电影台HD,mitv://generationnexxxt.com:19806/a850e570b868424c94319a2652ca7c62
龙华电影,mitv://generationnexxxt.com:19806/1df6f5f0993a46faa17f676518654709
星卫HD电影台,mitv://generationnexxxt.com:19806/832bfeb4b3b84dd2a7428f9db69504eb
靖天映画,mitv://generationnexxxt.com:19806/b723859f3ed94e5ba712148b209eefd0
靖天电影台,mitv://generationnexxxt.com:19806/d8c581e0e1a24823a3d2110e3584ef8b
WARNER TV,mitv://generationnexxxt.com:19806/cd2062a6c5a94d548f3516d96e23deec
Star Movies HD,mitv://generationnexxxt.com:19806/cdbfcfca93f846c7bcc30d0fd108923f
AMC最爱电影,mitv://generationnexxxt.com:19806/24ce0147e36a438eab843a3168cea3bc
HBO Family,mitv://generationnexxxt.com:19806/8a0208ebdfa04b5eab112f0c8b01719c
CatchPlay电影台,mitv://generationnexxxt.com:19806/2dccaec60f0e418d82d2d0bb09f0c4a8
CinemaWorld,mitv://generationnexxxt.com:19806/e262f40881b2461f9a270b4d9d0b54c3
壹电视电影台,mitv://generationnexxxt.com:19806/1be1329b6d124745a87a16de445d2352
采昌影剧台,mitv://generationnexxxt.com:19806/a0d691053f9b4876ab2b509a62296911
佛卫慈悲台,mitv://generationnexxxt.com:19806/be70c8b5b35c4551b5c7d3c905234e69
TechStorm,mitv://generationnexxxt.com:19806/994876c6aadc4234ba73441f18d36602
EYE TV戏剧台,mitv://generationnexxxt.com:19806/2831986ed4b448c9b626788fbd3f2f89
台视新闻台,mitv://generationnexxxt.com:19806/9817b59742464113bd5656fcc7dced84
寰宇新闻台湾台,mitv://generationnexxxt.com:19806/ca27b65855704124be186aa0e5127c24
台视财经台,mitv://generationnexxxt.com:19806/e01d7738e33e456a812f7cefbf27b29a
纬来日本,mitv://generationnexxxt.com:19806/5f9d37ba1fc04a04aaec6979908294a2
爱尔达影剧台,mitv://generationnexxxt.com:19806/932d4522f2294c6a926b7ab8027c269f
民视(备),mitv://generationnexxxt.com:19806/8d864649cfc54b518b3d137d67583155
三立台湾台(备),mitv://generationnexxxt.com:19806/7554a57ea53f4c10ae4e219ac2d374c4
影迷数位电影台,mitv://generationnexxxt.com:19806/bc069c037478448a9e41dbc3e1d5d0f6
卫视中文台,mitv://generationnexxxt.com:19806/7f7bdcb1fb94430daa8ba120dcbfde4e
爱尔达体育1台,mitv://generationnexxxt.com:19806/68e521d35c0247ddbc5073dee98245a3
爱尔达体育3台,mitv://generationnexxxt.com:19806/3ebc6b89559c44dca30c4c259a5646b9
台视(备),mitv://generationnexxxt.com:19806/3c20d4387ec845149b2ded5f28805f18
爱尔达体育4台,mitv://generationnexxxt.com:19806/df4f198dbe6347e1a084c79d208f227d
中视(备),mitv://generationnexxxt.com:19806/c4ede9c3d1a84d0b9afe57622abcb9e7
华视(备),mitv://generationnexxxt.com:19806/177390ae66634acca9be01242a769660
东森新闻台(备),mitv://generationnexxxt.com:19806/35983e2efd5c44bf84bfb2977bbbc96d
镜新闻,mitv://generationnexxxt.com:19806/668a0abb880a496d8f57fad2f580566b
MTV,mitv://generationnexxxt.com:19806/eb5ba5262e2e4779a1418c78d14ad1e5
私人影院,mitv://generationnexxxt.com:19806/3cfadd5e9af14d6db652b3c23acd7a7d
港台电视31,mitv://generationnexxxt.com:19806/e4b56cb972e940ee8be694602294d242
港台电视32,mitv://generationnexxxt.com:19806/9c0a161f9c59476584fe4d8effc125b6
HOY TV,mitv://generationnexxxt.com:19806/10c18372b612479086c1f259245543ff
?翡翠台(备),mitv://147.135.39.171:9906/657c8f940005cf8fa955b96f23e11195
J2,mitv://generationnexxxt.com:19806/6a623cf5c0bc4c96b8fd45a47af4a872
无线新闻台(备),mitv://147.135.39.171:9906/657c8f940000cdb0a955b82762a73640
无线新闻台,mitv://147.135.39.171:9906/657c8f93000dad85a955b78b7a3a4c4f
无线财经体育资讯台,mitv://generationnexxxt.com:19806/8bcc654c89f74ebdb4e82062ef5f998c
ViuTVsix,mitv://generationnexxxt.com:19806/ba99e7a39d9c4e74bacc5de14f58dcf6
ViuTV,mitv://generationnexxxt.com:19806/976916e8baee45a89d5e023224f7ab2b
凤凰中文台,mitv://generationnexxxt.com:19806/64e1ab2a000417167359b3ca0417008f
凤凰资讯台,mitv://generationnexxxt.com:19806/6684e9f6606f49fba9b6de846dbdcb64
凤凰香港台,mitv://generationnexxxt.com:19806/8e396c3ec52f4eee9e5b7868042b1bf2
TVB星河(粤),mitv://generationnexxxt.com:19806/0c08d9d705a747908c23ba652726d777
澳门-MACAU,mitv://generationnexxxt.com:19806/f9ba8df6f9ed45789e882211735e6414
澳门莲花,mitv://generationnexxxt.com:19806/4c56fbe4e68541a9a759fa269574f98b
now新闻台,mitv://generationnexxxt.com:19806/d7a5bbf5664945cc8589b36b8434d68d
HKC 18,mitv://generationnexxxt.com:19806/140377dc9e0848678d614d451d69af9e
戏曲台,mitv://generationnexxxt.com:19806/4c3b3c3a6c8849c3aa0fc9938859e134
TVB娱乐新闻台,mitv://generationnexxxt.com:19806/46bb3afe133d4cd8ac4b195c7f5f428c
翡翠台,mitv://147.135.39.171:9906/657c8f9400023bf0a955b8853ca47814
千禧经典台,mitv://generationnexxxt.com:19806/1a5b04c67ece47bb87aa482e2c73138a
Thrill,mitv://generationnexxxt.com:19806/1c3c73215afd42558101c3ee65737202
明珠台,mitv://generationnexxxt.com:19806/9993262cc067418a983f0c7ec18adef9
香港国际财经台,mitv://generationnexxxt.com:19806/6aa47af091b54d618d1513b1bc23b0b9
18台,mitv://generationnexxxt.com:19806/8bf8f53c61944785b13817297101af20
now财经台,mitv://generationnexxxt.com:19806/88f95058c046453a973e2540701ccb4e
美亚电影台(粤语),mitv://generationnexxxt.com:19806/ee16565eb5fe46be8d22cbbde1fa9fae
Hands Up,mitv://generationnexxxt.com:19806/7a79a82b627a417f897895b4adf874aa
粤语片台,mitv://generationnexxxt.com:19806/3a44c9c92439443494b8ecff6fdb2336
亚洲剧台,mitv://generationnexxxt.com:19806/ee081a662356489d8b2170952ec91d24
功夫台,mitv://generationnexxxt.com:19806/ef6373344abf4bedae4d49ac953c1742
HOY资讯台,mitv://generationnexxxt.com:19806/eb5a565eb80d40509f0a248018dfd337
黄金翡翠台,mitv://generationnexxxt.com:19806/864714d6ebe847edaa948e9104107f12